30-Day Mortality Rate Induced by Malignant Neoplasm
…
Now we add the demographic information gender and ethnicity into our study_admissions table:

study_admissions %>%
  left_join(study_subjects, by = "subject_id", copy = TRUE) %>%
  print() -> study_admissions

Finally, we eliminate repetitive observations and get our study cohort of size 4307:

study_admissions %>%
  collect() %>%
  distinct(subject_id, hadm_id, .keep_all = T) %>%
  print() -> study_admissions

## # A tibble: 4,307 x 9
##    subject_id hadm_id   age mortality drg_severity icd9_code principal_dx gender
##         <int>   <int> <dbl> <lgl>            <dbl> <chr>     <lgl>        <chr> 
##  1         11  194540    50 TRUE                 1 1913      TRUE         F     
##  2         41  101757    56 TRUE                 4 1917      TRUE         M     
##  3         84  120969    44 TRUE                 1 1919      TRUE         F     
##  4        103  130744    60 TRUE                 1 1983      TRUE         F     
##  5        113  109976    35 FALSE                1 1915      TRUE         M     
##  6        115  114585    75 TRUE                 4 1940      TRUE         F     
##  7        127  141647    48 TRUE                 1 19889     TRUE         F     
##  8        138  105764    50 FALSE                1 1890      TRUE         M     
##  9        138  188284    50 FALSE                1 1890      TRUE         M     
## 10        143  143808    51 FALSE                3 1550      TRUE         M     
## #  with 4,297 more rows, and 1 more variable: ethnic_group <chr>
…
